[
    {
        "question": "You want to verify the OOB management configuration in your company's Cisco ACI fabric. Which tenant is used for the OOB management?",
        "id": 84,
        "options": {
          "a": "admin",
          "b": "common",
          "c": "mgmt",
          "d": "management"
        },
        "answer": "c"
      }
      ,
      {
        "question": "Which three options are logical constructs of a typical Cisco ACI tenant network? (Choose three.)",
        "id": 85,
        "options": {
          "a": "STP domain",
          "b": "bridge domain",
          "c": "Layer 3 Out",
          "d": "Layer 4 Out",
          "e": "Layer 7 Out",
          "f": "VRF",
          "g": "ARP table"
        },
        "answer": ["b", "c", "f"]
      }
      ,
      {
        "question": "What CLI command on the Cisco APIC should you use to display spine and leaf switch OOB management IP addresses?",
        "id": 86,
        "options": {
          "a": "show interface mgmt0",
          "b": "show oob-mgmt",
          "c": "show interface oob-mgmt",
          "d": "show vrf mgmt:inb oob-mgmt"
        },
        "answer": "b"
      }
      ,
      {
        "question": "Which statement is correct regarding Cisco ACI Integration with Cisco AVE?",
        "id": 87,
        "options": {
          "a": "Cisco AVE is hypervisor dependent.",
          "b": "Cisco AVE resides in the hypervisor kernel.",
          "c": "Cisco AVE cannot be integrated within the VMware virtual infrastructure.",
          "d": "Cisco AVE implements the OpFlex protocol for control plane communication."
        },
        "answer": "d"
      }
      ,
      {
        "question": "What is the default syslog format in Cisco ACI?",
        "id": 88,
        "options": {
          "a": "RFC 5424",
          "b": "NX-OS style",
          "c": "IOS style",
          "d": "IOS XE style"
        },
        "answer": "a"
      }
      ,
      
      {
      "question": "You want to create an AEP in Cisco ACI, so you can use it as configuration profile of the interface that gets applied when an entity attaches to the fabric. Which policies should you use to create an AEP?",
      "id": 89,
      "options": {
      "a": "module policies",
      "b": "interface policies",
      "c": "switch policies",
      "d": "global policies"
      },
      "answer": "d"
      }
      ,
      {
        "question": "Which option should you use to create a Port Channel interface in Cisco ACI?",
        "id": 90,
        "options": {
          "a": "switch policy",
          "b": "switch profile",
          "c": "interface policy group",
          "d": "interface profile"
        },
        "answer": "c"
      }
      ,
      {
        "question": "Which ASIC is used on second-generation Cisco Nexus 9300 Series switches?",
        "id": 91,
        "options": {
          "a": "NFE",
          "b": "ALE",
          "c": "LSE",
          "d": "UPC"
        },
        "answer": "c"
      }
      ,
      {
        "question": "Which two statement regarding Cisco ACI configuration backup are true? (Choose two.)",
        "id": 92,
        "options": {
          "a": "By default, only tenants are exported during the backups.",
          "b": "By default, only policies are exported during the backups.",
          "c": "By default, all policies and tenants are exported during the backups.",
          "d": "You can assign the target of the export, which can be fabric, infra, or a specific tenant.",
          "e": "You can assign the target of the export, which can be fabric, common, or a specific tenant.",
          "f": "You can assign the target of the export, which can be fabric, common, mgmt, or a specific tenant."
        },
        "answer": ["c", "d"]
      }
      ,
      {
        "question": "Which two protocols are used in the Cisco ACI fabric discovery process? (Choose two.)",
        "id": 93,
        "options": {
          "a": "Cisco Discovery Protocol",
          "b": "LLDP",
          "c": "DHCP",
          "d": "LACP",
          "e": "SNMP"
        },
        "answer": ["b", "c"]
      }
      ,
      {
        "question": "Which two statements regarding Cisco APIC cluster are correct? (Choose two.)",
        "id": 94,
        "options": {
          "a": "The Cisco APIC cluster sits in the traffic path.",
          "b": "The Cisco APIC cluster uses a large database technology called sharding.",
          "c": "A cluster size of 4 or 6 APICs is recommended.",
          "d": "The shards are distributed across two Cisco APICs for redundancy.",
          "e": "Any controller in the Cisco APIC cluster can service any user for any operation."
        },
        "answer": ["b", "e"]
      }
      ,
      {
        "question": "You plan to use a service graph template to insert a service appliance in the traffic path in Cisco ACI. With which element should you associate the service graph template to be 'rendered' on the Layer 4 to Layer 7 device and on the fabric?",
        "id": 95,
        "options": {
          "a": "tenant",
          "b": "bridge domain",
          "c": "VRF",
          "d": "contract"
        },
        "answer": "d"
      }
      ,
      {
      "question": "Which three statements are correct for dynamic routing protocols support for Layer 3 connections in Cisco ACI? (Choose three.)",
      "id": 96,
      "options": {
      "a": "EIGRP (IPv4 and IPv6) is supported.",
      "b": "OSPFv2 (IPv4) and OSPFv3 (IPv6) are supported.",
      "c": "OSPFv2 (IPv4) is supported, while OSPFv3 (IPv6) is not supported.",
      "d": "BGP (IPv4 and IPv6) is supported.",
      "e": "IS-IS (IPv4 and IPv6) is supported.",
      "f": "IS-IS (IPv4) is supported, while IS-IS (IPv6) is not supported.",
      "g": "RIPv2 (IPv4) is supported, while RIPng (RIP for IPv6) is not supported."
      },
      "answer": ["a", "b", "d"]
      }
      ,
      {
        "question": "Which CLI command on the spine and leaf switches in the Cisco ACI should you use to display the switches in-band management IP addresses?",
        "id": 97,
        "options": {
          "a": "show ip interf vrf management",
          "b": "show inband-mgmt",
          "c": "show ip interf inband-mgmt",
          "d": "show ip interf inband-mgmt vrf mgmt:inb"
        },
        "answer": "a"
      }
      ,
      {
        "question": "You are performing an upgrade on Cisco APIC from Release 2.2(4) to Release 4.2(1). Which statement is correct?",
        "id": 98,
        "options": {
          "a": "Only the switches will be upgraded.",
          "b": "All controllers in the Cisco APIC cluster are upgraded at the same time.",
          "c": "The system automatically checks the compatibility for possible upgrades by default.",
          "d": "You can upgrade only the Cisco APIC, without the need to upgrade the leaf and spine switches later."
        },
        "answer": "c"
      }
      ,
      {
        "question": "You are working for a service provider that uses Cisco ACI for a multitenant solution, with a RADIUS server as external AAA provider. What is the shell string for the Cisco AV pair that you should assign to the RADIUS record of a user, which should have read-only 'admin' privileges to the domain Wind, as well as read-only privileges to the domain common?",
        "id": 99,
        "options": {
          "a": "ACI_Security_Domain_1//admin",
          "b": "ACI_Security_Domain_1/admin/,common//read-all(16001)",
          "c": "Wind/admin/,common//read-all(16001)",
          "d": "Wind//admin,common//read-all(16001)"
        },
        "answer": "d"
      }
      ,
      {
        "question": "You plan to enable OSPF between the Cisco ACI fabric and two external routers. Which statement is correct regarding the needed external Layer 3 connectivity?",
        "id": 100,
        "options": {
          "a": "Cisco ACI fabric does not support transit routing.",
          "b": "External routes within the ACI fabric are propagated using IS-IS.",
          "c": "External routes within the ACI fabric are propagated using multi-area OSPF.",
          "d": "You need to create Layer 3 Out to configure the interfaces, specify the OSPF protocol and its parameters.",
          "e": "You need to create an application profile to configure the interfaces, specify the OSPF protocol and its parameters."
        },
        "answer": "d"
      }
      ,
      {
        "question": "What is the use of a device package in Cisco ACI?",
        "id": 101,
        "options": {
          "a": "external Layer 2 connection",
          "b": "external Layer 3 connection",
          "c": "Layer 4–Layer 7 service integration",
          "d": "Layer 5–Layer 7 service integration",
          "e": "inter-tenant communication"
        },
        "answer": "c"
      }
      ,
      {
        "question": "How does bridge domain handle different types of traffic in Cisco ACI?",
        "id": 102,
        "options": {
          "a": "By default, Layer 2 unknown unicast traffic is flooded.",
          "b": "By default, ARP flooding is enabled.",
          "c": "Unicast routing is disabled by default.",
          "d": "Hardware proxy, and Layer 2 unknown unicast and ARP flooding are two opposite modes of operation."
        },
        "answer": "d"
      }
      ,
      {
        "question": "You are exploring the Cisco ACI faults state in the Cisco APIC GUI, so you can understand their life cycle. Which two statements are correct? (Choose two.)",
        "id": 103,
        "options": {
          "a": "The default soaking interval is 180 seconds.",
          "b": "The default soaking interval is 300 seconds.",
          "c": "After the soak time, the fault transitions to a raised state.",
          "d": "If the fault condition reoccurs during the retention interval, a new fault MO is created in the soaking state.",
          "e": "A fault raised by the system can have only one severity during its life cycle."
        },
        "answer": ["c", "d"]
      }
      ,
      {
        "question": "You are creating a bridge domain in Cisco ACI, so you can deploy a gateway on any leaf switches with EPGs associated to this bridge domain. Which two statements are correct? (Choose two.)",
        "id": 104,
        "options": {
          "a": "Bridge domain can belongs to multiple VRFs.",
          "b": "VRF can have one or more bridge domains.",
          "c": "Bridge domain is the Layer 2 forwarding domain.",
          "d": "The default gateway for the endpoint can be associated with only one leaf switch.",
          "e": "Bridge domain does not support Layer 2 flood traffic."
        },
        "answer": ["b", "c"]
      }
      ,
      {
        "question": "What does an EPG represent?",
        "id": 105,
        "options": {
          "a": "application network profile",
          "b": "policy enforcement",
          "c": "broadcast domain",
          "d": "collection of similar hosts or servers"
        },
        "answer": "d"
      }
      ,
      {
        "question": "You are a network engineer responsible for the Cisco ACI in your company’s data center and you want to automate CLI tasks with shell scripts using SSH for logging in to the Cisco APIC. How can you implement a password-free SSH login?",
        "id": 106,
        "options": {
          "a": "Configure a dedicated user without a password.",
          "b": "Associate X.509 certificate with a dedicated user.",
          "c": "Associate SSH public key with a dedicated user.",
          "d": "Associate SSH private key with a dedicated user."
        },
        "answer": "c"
      }
      ,
      {
        "question": "Which statement is correct regarding endpoint learning process in Cisco ACI?",
        "id": 107,
        "options": {
          "a": "The leaf switches store location and policy information only about endpoints that are directly attached to them.",
          "b": "The leaf switches store location and policy information only about endpoints that are directly attached to them or through a directly attached Layer 2 switch or Fabric Extender.",
          "c": "The leaf switches store location and policy information about endpoints that are attached directly to them (or through a directly attached Layer 2 switch or Fabric Extender), and endpoints that are attached to other leaf switches on the fabric.",
          "d": "The leaf switches do not store location and policy information about any endpoints, since it is stored in the Cisco APIC."
        },
        "answer": "c"
      }
      ,
      
      {
      "question": "Which two statements are correct regarding differences between TACACS+ and RADIUS, when used as remote AAA protocols with Cisco ACI? (Choose two.)",
      "id": 108,
      "options": {
      "a": "TACACS+ uses UDP as transport protocol, while RADIUS uses TCP.",
      "b": "TACACS+ encrypts passwords during authentication, while RADIUS does not.",
      "c": "RADIUS supports Cisco AV pairs, while TACACS+ does not.",
      "d": "TACACS+ encrypts the entire payload between the AAA client and server, while RADIUS encrypts only the passwords during authentication.",
      "e": "TACACS+ provides independent AAA facilities, so the APIC can authorize access without authenticating, which is not available in RADIUS."
      },
      "answer": ["d", "e"]
      }
      ,
      {
        "question": "Which three options enable you to query or view the MIT in Cisco ACI fabric? (Choose three.)",
        "id": 109,
        "options": {
          "a": "Virtuale",
          "b": "Object Store Browser",
          "c": "Moquery",
          "d": "MITquery",
          "e": "Python SDK",
          "f": "Nova SDK"
        },
        "answer": ["b", "c", "e"]
      }
      ,
      {
        "question": "You are working as a consultant and you are hired to help a customer during Cisco ACI integration with Kubernetes environment. Since the customer is planning to use Red Hat OpenShift as a container application platform on top of Kubernetes, which plug-in will it need for the integration?",
        "id": 110,
        "options": {
          "a": "VMware vCenter plug-in",
          "b": "CNA plug-in",
          "c": "CNI plug-in",
          "d": "OpenStack plug-in"
        },
        "answer": "c"
      }
      ,
      
      {
      "question": "You are creating an application profile in Cisco ACI to group physical and virtual servers for a three-tier application. Which statement is correct regarding application profiles in Cisco ACI?",
      "id": 111,
      "options": {
      "a": "Application profiles are groups of EPGs.",
      "b": "Application profiles are groups of tenants.",
      "c": "Application profiles are groups of bridge domains.",
      "d": "Application profiles are groups of subnets."
      },
      "answer": "a"
      }
      ,
      {
        "question": "You are creating contracts in Cisco ACI to define the relationship between different application tiers. Which three items are part of the contract structure? (Choose three.)",
        "id": 112,
        "options": {
          "a": "object",
          "b": "subject",
          "c": "IP subnet",
          "d": "filter",
          "e": "action",
          "f": "EPG"
        },
        "answer": ["b", "d", "e"]
      }
      ,
      {
        "question": "Your company is in a process of installing Cisco ACI fabric that should connect to the existing network infrastructure that utilizes STP. Which two statement are correct regarding Cisco ACI and STP interaction, including fabric reaction to BPDU TCNs? (Choose two.)",
        "id": 113,
        "options": {
          "a": "STP is run within the Cisco ACI fabric.",
          "b": "BPDUs are flooded within an EPG.",
          "c": "BPDUs are flooded within a bridge domain.",
          "d": "When BPDU TCN is received, the Cisco APIC updates the topology, as requested.",
          "e": "When BPDU TCN is received, the Cisco APIC flushes the MAC addresses for the corresponding EPG.",
          "f": "When BPDU TCN is received, the Cisco APIC flushes the MAC addresses for the corresponding bridge domain."
        },
        "answer": ["b", "e"]
      }
      ,
      {
        "question": "Which statement is correct regarding PBR and provisioning of service appliances in Cisco ACI?",
        "id": 114,
        "options": {
          "a": "PBR enables service appliances provisioning only as managed devices.",
          "b": "PBR enables service appliances provisioning only as unmanaged devices.",
          "c": "PBR enables service appliances provisioning as managed or unmanaged devices.",
          "d": "PBR cannot be implemented while provisioning service appliances."
        },
        "answer": "c"
      }
      ,
      {
        "question": "Which Cisco NX-OS Style CLI command triggers a tech support for switch 101, to be stored locally on the controller?",
        "id": 115,
        "options": {
          "a": "techsupport switch 101 local",
          "b": "trigger techsupport switch 101",
          "c": "start techsupport switch 101",
          "d": "start techsupport switch 101 local"
        },
        "answer": "b"
      }
      ,
      {
        "question": "Which two are key Cisco ACI features? (Choose two.)",
        "id": 116,
        "options": {
          "a": "core-aggregation-access layer design",
          "b": "open APIs and a programmable SDN fabric",
          "c": "Fibre Channel support",
          "d": "manual IT workflows for better control",
          "e": "automation of IT workflows"
        },
        "answer": ["b", "e"]
      }
      ,
      {
        "question": "You are using configuration export in Cisco ACI so you can recover configuration stwhat ates to the last known good state when needed. Since you store this backups on remote location, you want to secure this Cisco APIC configuration files with encryption. Which type of encryption can you use?",
        "id": 117,
        "options": {
          "a": "3DES",
          "b": "AES-256",
          "c": "AES-512",
          "d": "Blowfish"
        },
        "answer": "b"
      }
      ,
      {
        "question": "Which element do you associate with a VMM domain?",
        "id": 118,
        "options": {
          "a": "VRF",
          "b": "tenant",
          "c": "EPG",
          "d": "bridge domain"
        },
        "answer": "c"
      }      
]