[
{
    "question": "Which command can you use in the Cisco APIC CLI, to find the pcTag for an EPG named Web?",
    "id": 119,
    "options": {
      "a": "moquery -c fvEPG -f 'fv.EPG.name==\"Web\"'",
      "b": "moquery -c fvAEPg -f 'fv.AEPg.name==\"Web\"'",
      "c": "moquery -c fvCtx -f 'fv.Ctx.name==\"Web\"'",
      "d": "moquery -c fvBD -f 'fv.BD.name==\"Web\"'"
    },
    "answer": "a"
  }
  ,
  {
    "question": "You plan to insert a transparent firewall pair that is stretched across pods in a Cisco ACI Multi-Pod deployment. Which two high-availability models can you use? (Choose two.)",
    "id": 120,
    "options": {
      "a": "Active-standby firewall nodes stretched across pods, for north-south traffic inspection.",
      "b": "Active-standby firewall nodes stretched across pods, for east-west traffic inspection.",
      "c": "Active-active firewall cluster stretched across pods, for north-south traffic inspection.",
      "d": "Active-active firewall cluster stretched across pods, for east-west traffic inspection.",
      "e": "Independent active-standby firewall nodes in one pod, so you can insert similar nodes in other pods, for north-south traffic inspection.",
      "f": "Independent active-standby firewall nodes in one pod, so you can insert similar nodes in other pods, for east-west traffic inspection."
    },
    "answer": ["a", "d"]
  }
  ,
  {
    "question": "How many EPGs are implemented for individual VLAN from the existing network in a network-centric Cisco ACI deployment?",
    "id": 121,
    "options": {
      "a": "Single EPG per VLAN.",
      "b": "External and internal EPG pair per VLAN.",
      "c": "None since network-centric mode uses BDs instead of EPGs.",
      "d": "Depends on the number of application tiers.",
      "e": "Maximum five due to hardware resource usage."
    },
    "answer": "a"
  }
  ,
  {
    "question": "What is the resilient hashing PBR feature in Cisco ACI?",
    "id": 122,
    "options": {
      "a": "During a PBR node failure, it automatically disables the PBR action.",
      "b": "During a PBR node failure, all flow sessions are re-hashed and may be load-balanced to different PBR nodes.",
      "c": "It is invoked only when multiple PBR node failures occur.",
      "d": "During a PBR node failure, only the traffic that went through a failed node will be redirected to a different available PBR node."
    },
    "answer": "b"
  }
  ,
  {
    "question": "Which statement is correct regarding the rogue endpoint control feature in Cisco ACI?",
    "id": 123,
    "options": {
      "a": "Rogue endpoint control feature is enabled by default.",
      "b": "Rogue endpoint control feature stops a Layer 2 loop.",
      "c": "Rogue endpoint control feature stops the learning for the endpoint that is moving too often between ports.",
      "d": "There is no rogue endpoint control feature in Cisco ACI."
    },
    "answer": "c"
  }
  ,
  {
    "question": "Which VLAN ID is mapped to the EPG at the leaf access port where the endpoint is connected?",
    "id": 124,
    "options": {
      "a": "The same VLAN ID the endpoint is part of.",
      "b": "Leaf access port uses VXLAN ID instead of VLAN ID.",
      "c": "BD_VLAN ID of BD to which EPG belongs.",
      "d": "FD_VLAN ID of the EPG that is configured at the leaf access port."
    },
    "answer": "c"
  }
  ,
  {
    "question": "Which two statements regarding vzAny usage in Cisco ACI are correct? (Choose two.)",
    "id": 125,
    "options": {
      "a": "vzAny can only be used as consumer in a standard contract.",
      "b": "vzAny can only be used as provider in a standard contract.",
      "c": "vzAny can be used as consumer and/or provider in a standard contract.",
      "d": "vzAny can only be used as consumer in a contract for shared services.",
      "e": "vzAny can only be used as provider in a contract for shared services."
    },
    "answer": ["c", "d"]
  }
  ,
  {
    "question": "What is the common anycast address in the Cisco ACI Multi-Site that is shared by all spine nodes at the same site (which uniquely identifies the site) and is used to source and receive unicast VXLAN data-plane traffic?",
    "id": 126,
    "options": {
      "a": "EVPN-RID",
      "b": "O-UTEP",
      "c": "O-MTEP",
      "d": "VNID"
    },
    "answer": "b"
  }
  ,
  {
    "question": "Which three threshold down action options are available in Cisco ACI, when the number of available PBR destinations in the PBR policy falls below the minimum threshold percentage? (Choose three.)",
    "id": 127,
    "options": {
      "a": "permit",
      "b": "deny",
      "c": "redirect",
      "d": "bypass",
      "e": "forward",
      "f": "drop"
    },
    "answer": ["c", "d", "f"]
  }
  ,
  {
    "question": "Which two scopes should you select under the L3Out subnet in the L3Out EPG, when configuring VRF route leaking between L3Out EPG (external EPG) and internal EPG? (Choose two.)",
    "id": 128,
    "options": {
      "a": "Advertised Externally",
      "b": "Shared between VRFs",
      "c": "Shared Route Control Subnet",
      "d": "Shared Security Export Subnet",
      "e": "Shared Security Import Subnet"
    },
    "answer": ["b", "d"]
  }
  ,
  {
    "question": "You plan to use service graphs with PBR in the Cisco ACI in your company's data center, to redirect traffic to a firewall in routed mode. Which two statements represent service graph PBR requirements that you must take into account? (Choose two.)",
    "id": 129,
    "options": {
      "a": "The Cisco ACI fabric must be the gateway for the endpoints and for the PBR node.",
      "b": "The firewall must be deployed in Go-Through mode.",
      "c": "Broadcast traffic redirection is not supported, because the contract can be applied to unicast or multicast traffic.",
      "d": "The administrator must enter the destination of redirection (IP and MAC addresses of the PBR node interfaces) in the APIC configuration.",
      "e": "Service graph PBR with a contract and vzAny as provider can be used with all Cisco APIC releases."
    },
    "answer": ["a", "d"]
  }
  ,
  {
    "question": "You have been given a task to migrate the existing VMware hypervisor solution with multiple VMs to a Cisco ACI fabric, and the hypervisor hosts should be managed using a single vCenter Server during the migration. Which statement regarding the hypervisor hosts is correct?",
    "id": 130,
    "options": {
      "a": "The hypervisor host connected to the ACI fabric to which VMs will be migrated must be part of the existing VMware ESXi cluster.",
      "b": "The hypervisor host connected to the ACI fabric to which VMs will be migrated must be part of a new VMware ESXi cluster.",
      "c": "The hypervisor host connected to the ACI fabric to which VMs will be migrated can be part of either the existing or a new VMware ESXi cluster.",
      "d": "The existing VMware hypervisor solution with multiple VMs cannot be migrated to the Cisco ACI fabric."
    },
    "answer": "c"
  }
  ,
  {
    "question": "Which two options are typical for the application-centric deployment model? (Choose two.)",
    "id": 131,
    "options": {
      "a": "One BD per VLAN is used.",
      "b": "Small number of BDs are used.",
      "c": "Multiple EPGs per BD are configured.",
      "d": "Individual VLAN is mapped to a single EPG.",
      "e": "All traffic between EPGs is permitted.",
      "f": "Default gateway is defined outside the Cisco ACI."
    },
    "answer": ["c", "d"]
  }
  ,
  {
    "question": "In which two ways are BD VLAN and VXLAN IDs assigned across leaf switches? (Choose two.)",
    "id": 132,
    "options": {
      "a": "BD_VLAN is locally significant per leaf switch.",
      "b": "BD VXLAN of the BD must be the same across all leaf switches.",
      "c": "BD_VLAN must be the same as access encapsulation VLAN.",
      "d": "BD VXLAN is locally significant per leaf switch.",
      "e": "BD_VLAN is calculated from the FD_VLAN."
    },
    "answer": ["a", "d"]
  }
  ,
  {
    "question": "Why is it not recommended to use the overlapping VLAN pools?",
    "id": 133,
    "options": {
      "a": "It could result in STP loop or inconsistent connectivity for the overlapping VLAN IDs.",
      "b": "Overlapping VLAN pools can only be implemented in a multi-pod deployment.",
      "c": "Overlapping VLAN pools must be applied to the same interfaces across all leaf switches.",
      "d": "Overlapping VLAN pools cannot be used for static VLAN allocation."
    },
    "answer": "a"
  }
  ,
  {
    "question": "You have been given a task to deploy Cisco ACI Multi-Site to connect two geographically distributed data centers, ensuring only routed communication is established across sites, for both intra-VRF and inter-VRF communication. Which configuration should you apply to the bridge domain options in the Cisco ACI MSO UI?",
    "id": 144,
    "options": {
      "a": "L2 STRETCH enabled and INTERSITE BUM TRAFFIC ALLOW enabled.",
      "b": "L2 STRETCH enabled and INTERSITE BUM TRAFFIC ALLOW disabled.",
      "c": "L2 STRETCH disabled and INTERSITE BUM TRAFFIC ALLOW enabled.",
      "d": "L2 STRETCH disabled, while INTERSITE BUM TRAFFIC ALLOW is not configurable."
    },
    "answer": "c"
  }
  ,
  {
    "question": "You are troubleshooting an issue in your company's Cisco ACI fabric, related to connected endpoints. Which two options are correct regarding the endpoint table in Cisco ACI? (Choose two.)",
    "id": 145,
    "options": {
      "a": "Endpoint table is similar to RIB in traditional network devices.",
      "b": "Endpoint table contains the MAC and IP addresses (/32 or /128 only).",
      "c": "You can display the endpoint table using the show endpoint command in the leaf switch CLI.",
      "d": "You can display the endpoint table using the show endpoint-table command in the leaf switch CLI.",
      "e": "You can display the endpoint table using the show endpoint-table command in the APIC CLI.",
      "f": "You can display the endpoint table using the show mac address-table command in the leaf switch CLI."
    },
    "answer": ["b", "e"]
  }
  ,
  {
    "question": "How is a vPC peer link implemented at the Cisco ACI leaf switches?",
    "id": 146,
    "options": {
      "a": "With dedicated 10GE link between pair of leaf switches.",
      "b": "There is no direct vPC peer link between leaf switches.",
      "c": "Peer link is implemented via external switched network.",
      "d": "Using special vPC peer link policy."
    },
    "answer": "b"
  }
  ,
  {
    "question": "Cisco MSO GUI is arranged according to function. Which three functions can be accessed using the general menus of MSO GUI? (Choose three.)",
    "id": 147,
    "options": {
      "a": "Sites",
      "b": "Log",
      "c": "Users",
      "d": "Admin",
      "e": "Templates",
      "f": "Controllers"
    },
    "answer": ["a", "b", "c"]
  }
  ,
  {
    "question": "Two endpoints in the same bridge domain, but in different pods in Cisco ACI Multi-Pod deployment are communicating with each other. Which information relative to the EPG that the sending endpoint belongs to, does the local leaf switch add to the VXLAN header, so the contract related information is carried across pods?",
    "id": 148,
    "options": {
      "a": "VNID",
      "b": "VLAN ID",
      "c": "Pod ID",
      "d": "pcTag"
    },
    "answer": "d"
  }
  ,
  {
    "question": "You have connected a dual-attached server to the Cisco ACI fabric, which uses active/active NIC teaming that sends the same source IP address from multiple NIC cards with different MAC addresses. Since this teaming configuration cannot be changed, what should you do in Cisco ACI to avoid potential issues with this server?",
    "id": 149,
    "options": {
      "a": "Disable the MAC learning in the VRF configuration.",
      "b": "Disable the IP data-plane learning in the VRF configuration.",
      "c": "You cannot connect this server to the Cisco ACI fabric without issues.",
      "d": "Configure scripts to periodically clear the endpoint table on the leaf switches."
    },
    "answer": "a"
  }
  ,
  {
    "question": "You are configuring an IPN to deploy Cisco ACI Multi-Pod in different locations. Since the IPN must support multicast to handle BUM traffic across pods, which two multicast requirements should you consider during the configuration? (Choose two.)",
    "id": 150,
    "options": {
      "a": "The IPN should support Bidirectional Protocol Independent Multicast (PIM Bidir).",
      "b": "The IPN should support PIM Any Source Multicast (PIM ASM).",
      "c": "The IPN should support PIM Source-Specific Multicast (PIM SSM).",
      "d": "Rendezvous points (RPs) cannot be deployed in the IPN.",
      "e": "A unique multicast group is associated with each defined bridge domain, referred to as BD GIPo.",
      "f": "A single (*, G) entry must be created for a given VRF, independently from the overall number of leaf nodes."
    },
    "answer": ["a", "b"]
  }
  ,
  {
    "question": "Which two options are applicable to Cisco ACI Multi-Site when compared to Cisco ACI Multi-Pod deployment? (Choose two.)",
    "id": 151,
    "options": {
      "a": "Single APIC cluster for management",
      "b": "Change domain isolation",
      "c": "Multicast requirements in the interconnecting network",
      "d": "No latency limitation between sites",
      "e": "Up to 50 msec RTT limitation between sites"
    },
    "answer": ["a", "e"]
  }
  ,
  {
    "question": "You are deploying a Cisco Multi-Site solution and you are configuring the infra for inter-site connectivity using the Cisco ACI MSO UI. Which option in the Fabric Connectivity Infra page enables you to define the O-MTEP for the chosen site, as well as the OSPF configuration for the peering with the ISN?",
    "id": 152,
    "options": {
      "a": "Spine level",
      "b": "Pod level",
      "c": "Site level",
      "d": "ISN level"
    },
    "answer": "c"
  }
  ,
  {
    "question": "You plan to migrate the existing switched network in your company's data center to a Cisco ACI fabric. Which two options should you configure during endpoint migration to the Cisco ACI fabric when some of the endpoints are still connected to the existing network? (Choose two.)",
    "id": 153,
    "options": {
      "a": "Layer 2 Unknown Unicast flooding in BD",
      "b": "Unicast Routing in BD",
      "c": "ARP flooding in BD",
      "d": "Gateway IP address in EPG",
      "e": "Hardware proxy for Layer 2 Unknown Unicast",
      "f": "Custom MAC address in BD"
    },
    "answer": ["a", "f"]
  }
  ,
  {
    "question": "Which statement is correct regarding the usage of a two-node service graph in Cisco ACI between consumer and provider EPG, with the first node as PBR node and the second one as non-PBR?",
    "id": 154,
    "options": {
      "a": "The non-PBR node can be in the same bridge domain as the consumer or provider EPG.",
      "b": "The PBR node can be in the same bridge domain as the consumer or provider EPG using all Cisco APIC releases.",
      "c": "The PBR node can be in the same bridge domain as the non-PBR node if it is deployed in Go-To mode.",
      "d": "The PBR node can be in the same bridge domain as the non-PBR node if it is deployed in Go-Through mode."
    },
    "answer": "a"
  }
  ,
  {
    "question": "Which three options represent bridge domain configuration options in the Cisco ACI Multi-Site deployment? (Choose three.)",
    "id": 155,
    "options": {
      "a": "L3 STRETCH",
      "b": "L2 STRETCH",
      "c": "INTERSITE BUM TRAFFIC ALLOW",
      "d": "INTERSITE ARP TRAFFIC ALLOW",
      "e": "INTERSITE UNICAST TRAFFIC ALLOW",
      "f": "OPTIMIZE WAN BANDWIDTH",
      "g": "IMPLEMENT QOS"
    },
    "answer": ["b", "c", "e"]
  }
  ,
  {
    "question": "You are using the spine switch CLI to examine the content of the COOP database, and you have issued the following command. What does the Publisher Id: 10.0.248.34 represent in the output?\n\nSpine2# show coop internal info ip-db key 2916352 172.16.1.1\n\nIP address: 172.16.1.1\nVrf: 2916352\nFlags: 0\nEP bd vnid: 15826915\nEP mac: 00:00:55:55:11:11\nPublisher Id: 10.0.248.34\n<... output omitted ...>",
    "id": 156,
    "options": {
      "a": "Endpoint IP address connected to the leaf switch",
      "b": "TEP address of the leaf switch",
      "c": "TEP address of the spine switch",
      "d": "OOB management address of the leaf switch",
      "e": "OOB management address of the spine switch"
    },
    "answer": "c"
  }
  ,
  {
    "question": "Which three of the following tenant policies and their associations can be configured in the MSO Multi-Site GUI? (Choose three.)",
    "id": 157,
    "options": {
      "a": "VRFs",
      "b": "Contracts and filters",
      "c": "Fabric L2 MTU",
      "d": "Control Plane MTU",
      "e": "Application profiles and EPGs",
      "f": "DSCP class-cos translation for L3 traffic"
    },
    "answer": ["a", "b", "e"]
  }
  ,
  {
    "question": "Which three topologies are supported in Cisco ACI Multi-Pod deployment? (Choose three.)",
    "id": 158,
    "options": {
      "a": "Intra data center",
      "b": "Three directly connected data centers",
      "c": "Four directly connected data centers",
      "d": "Five directly connected data centers",
      "e": "Six directly connected data centers",
      "f": "Multiple sites connected by a generic Layer 3 network"
    },
    "answer": ["b", "c", "d"]
  }
  ,
  {
    "question": "In which three scenarios is the spine-proxy in Cisco ACI used when the destination endpoint address is not known to an ingress leaf? (Choose three.)",
    "id": 159,
    "options": {
      "a": "The packet is a unicast Layer 3 routed packet and the destination IP belongs to one of the BD subnets on the ingress leaf.",
      "b": "The packet is a unicast Layer 2 switched packet and the BD Layer 2 Unknown Unicast mode is set to flood.",
      "c": "The packet is a unicast Layer 2 switched packet and the BD Layer 2 Unknown Unicast mode is set to hardware-proxy.",
      "d": "The packet is a unicast Layer 2 switched packet and the BD Layer 2 Unknown Unicast mode is set to software-proxy.",
      "e": "The packet is a broadcast ARP request and the BD ARP Flooding is enabled.",
      "f": "The packet is a broadcast ARP request, and the ARP target IP belongs to one of the BD subnets on the ingress leaf, while the BD ARP Flooding is disabled."
    },
    "answer": ["a", "d", "f"]
  }
  ,
  {
    "question": "You have used vzAny in Cisco ACI fabric as the consumer and one EPG as the provider in a contract to share provider EPG resources to all EPGs, with access privileges defined by the contract. While listing the actual zoning rules for the specific scope, what is the pcTag that you should look for representing the vzAny?",
    "id": 160,
    "options": {
      "a": "0",
      "b": "1",
      "c": "15",
      "d": "65535"
    },
    "answer": "d"
  }
  ,
  {
    "question": "Which three endpoint learning behaviors are applicable when the 'IP Data-plane Learning' option under VRF is disabled? (Choose three.)",
    "id": 161,
    "options": {
      "a": "Local MACs and remote MACs are learned via the control plane.",
      "b": "Local IPs are not learned via the data plane.",
      "c": "Local IPs are learned via the data plane.",
      "d": "Local IPs are learned from ARP/GARP/ND via the control plane.",
      "e": "Remote IPs are not learned from unicast packets via the data plane.",
      "f": "Remote IPs are not learned from multicast packets via the data plane."
    },
    "answer": ["a", "b", "f"]
  }
  ,
  {
    "question": "Which statement regarding Cisco ACI Multi-Site deployment is correct?",
    "id": 162,
    "options": {
      "a": "Only overlapping VNIDs can be used in different sites.",
      "b": "Only overlapping class IDs can be used in different sites.",
      "c": "Overlapping VNIDs and class IDs cannot be used in different sites.",
      "d": "Overlapping VNIDs and class IDs can be used in different sites."
    },
    "answer": "c"
  }
  ,
  {
    "question": "Which two actions should you perform to use a contract preferred group for specific EPGs in Cisco ACI? (Choose two.)",
    "id": 163,
    "options": {
      "a": "Enable the Preferred Group under the VRF.",
      "b": "Enable the Preferred Group under the BD.",
      "c": "Enable the Preferred Group under the EPG.",
      "d": "Select the Include option in the desired EPGs under Preferred Group Member. By default, all other EPGs have this option set to Exclude.",
      "e": "Select the desired EPGs from a list in the VRF, under Preferred Group Members. By default, all other EPGs that are not part of this list are excluded."
    },
    "answer": ["c", "e"]
  }
  ,
  {
    "question": "What mechanism should be enabled at leaf access ports connecting external switched network to break the loop due to EPG misconfiguration?",
    "id": 164,
    "options": {
      "a": "MisCabling Protocol",
      "b": "Per VLAN Spanning Tree",
      "c": "Configuring EPG for native VLAN",
      "d": "Rate limiting of unknown traffic"
    },
    "answer": "b"
  }
  ,
    {
      "question": "Which statement is correct regarding Cisco UCS B-Series blade servers?",
      "id": 165,
      "options": {
        "a": "Cisco UCS B-Series components include integrated Cisco Nexus 9000 Series switch, blade server chassis, and blade servers",
        "b": "VLANs must be created on both Cisco UCS fabrics in a Cisco UCS B-Series cluster configuration.",
        "c": "Using Cisco APIC GUI, networking policies (creation of VLANs) can be automated on the Cisco UCS devices during integration with Cisco ACI.",
        "d": "The Cisco UCS integration group under the Cisco APIC GUI can be found under the Virtual networking tab in the top-level menu."
      },
      "answer": "c"
    }
]
  
  